<svg width="32" height="32" viewBox="0 0 32 32" fill="none" xmlns="http://www.w3.org/2000/svg">
<path d="M16 2.66663C8.636 2.66663 2.66667 8.63596 2.66667 16C2.66667 22.684 7.59067 28.204 14.0067 29.168V19.5333H10.708V16.028H14.0067V13.696C14.0067 9.83463 15.888 8.13996 19.0973 8.13996C20.6347 8.13996 21.4467 8.25329 21.832 8.30529V11.364H19.6427C18.28 11.364 17.804 12.656 17.804 14.112V16.028H21.7973L21.256 19.5333H17.8053V29.196C24.3133 28.3146 29.3333 22.7493 29.3333 16C29.3333 8.63596 23.364 2.66663 16 2.66663Z" fill="white"/>
</svg>
