<svg width="81" height="76" viewBox="0 0 81 76" fill="none" xmlns="http://www.w3.org/2000/svg">
<g filter="url(#filter0_d_1185_1081)">
<path d="M40.3331 16.5412C39.2935 16.5412 38.2605 16.892 37.3704 17.5287L34.6157 19.4518L31.4452 19.8676H31.3932L31.3413 19.9196C29.2232 20.3939 27.5535 22.0636 27.0792 24.1816L27.0273 24.2336V24.2856L26.6115 27.5081L24.6884 30.0029L24.6364 30.0549V30.1068C23.4734 31.965 23.4215 34.3624 24.6884 36.136L26.6634 38.8907L27.1832 41.7494L21.8297 49.9096L20.1145 52.4564H28.0668L29.9899 56.9263L31.1853 59.785L32.9005 57.1862L38.1501 49.2859C39.5599 49.8641 41.1517 49.9161 42.516 49.2859L47.7656 57.1862L49.4808 59.785L50.6762 56.9263L52.5993 52.4564H60.5516L58.8364 49.9096L53.6388 42.0093L54.0547 38.8907L55.9778 36.136L56.0297 36.0841V36.0321C57.1927 34.1739 57.2447 31.8285 55.9778 30.0549L54.0547 27.3002L53.4309 24.1816H53.4829C53.4764 24.1426 53.4374 24.1166 53.4309 24.0777C53.1321 21.9012 51.4104 20.134 49.2209 19.8676H49.1689L46.0504 19.4518L43.2957 17.5287C42.4056 16.892 41.3726 16.5412 40.3331 16.5412ZM40.3331 19.9196C40.7164 19.9196 41.0932 20.0366 41.3726 20.2315L44.3352 22.3625L44.699 22.6223L45.1148 22.6743L48.7531 23.1941H48.8051C49.5523 23.2785 50.072 23.7983 50.1565 24.5454V24.6494L50.8322 28.3397L50.8841 28.7035L51.144 29.0154L53.275 31.978C53.6713 32.5302 53.7233 33.4658 53.223 34.2649L50.8841 37.5394L50.8322 37.9552L50.3124 41.5935V41.6455C50.2799 41.9183 50.189 42.1717 50.0525 42.3731L49.9486 42.4251V42.4771C49.7082 42.7629 49.3768 42.9513 48.961 42.9968H48.8571L45.0629 43.6725L44.647 43.7245L44.3352 43.9844L41.3726 46.1154C40.8203 46.5117 39.8328 46.5637 39.0337 46.0634L36.3309 43.9844L36.0191 43.7245L35.5513 43.6725L31.913 43.1528H31.861C31.3478 43.0943 30.9514 42.8279 30.7176 42.4251C30.6136 42.2432 30.5356 42.0288 30.5096 41.8014V41.6974L29.834 37.9032L29.782 37.4874L29.5221 37.1755L27.3911 34.2129C26.9948 33.6607 26.9428 32.6732 27.4431 31.874L29.5221 29.1713L29.782 28.8594L29.834 28.3916L30.3017 24.9093C30.3082 24.8833 30.3472 24.8833 30.3537 24.8573C30.5616 24.0452 31.2048 23.402 32.0169 23.1941C32.0429 23.1876 32.0429 23.1486 32.0689 23.1421L35.5513 22.6743L35.9671 22.6223L36.3309 22.3625L39.2935 20.2315C39.5729 20.0366 39.9497 19.9196 40.3331 19.9196ZM51.8197 45.2318L54.3665 49.13H50.3644L49.9486 50.1695L48.8051 52.8202L45.2708 47.4148L46.0504 46.843L49.3249 46.2713V46.3233C49.3638 46.3168 49.3898 46.2778 49.4288 46.2713C50.3254 46.1479 51.1375 45.771 51.8197 45.2318ZM28.8464 45.2838C29.5546 45.9205 30.4577 46.3623 31.4452 46.4792C31.4647 46.4792 31.4777 46.4792 31.4972 46.4792L34.6677 46.895L35.3954 47.4667L31.861 52.8202L30.7176 50.1695L30.3017 49.13H26.2996L28.8464 45.2838Z" fill="#00438B"/>
</g>
<defs>
<filter id="filter0_d_1185_1081" x="-4" y="0.663086" width="88.6666" height="83" filterUnits="userSpaceOnUse" color-interpolation-filters="sRGB">
<feFlood flood-opacity="0" result="BackgroundImageFix"/>
<feColorMatrix in="SourceAlpha" type="matrix" values="0 0 0 0 0 0 0 0 0 0 0 0 0 0 0 0 0 0 127 0" result="hardAlpha"/>
<feOffset dy="4"/>
<feGaussianBlur stdDeviation="2"/>
<feComposite in2="hardAlpha" operator="out"/>
<feColorMatrix type="matrix" values="0 0 0 0 0 0 0 0 0 0 0 0 0 0 0 0 0 0 0.25 0"/>
<feBlend mode="normal" in2="BackgroundImageFix" result="effect1_dropShadow_1185_1081"/>
<feBlend mode="normal" in="SourceGraphic" in2="effect1_dropShadow_1185_1081" result="shape"/>
</filter>
</defs>
</svg>
