<svg width="75" height="44" viewBox="0 0 75 44" fill="none" xmlns="http://www.w3.org/2000/svg">
<path d="M24.3639 6.70567L11.3312 1.16353C11.3312 1.16353 3.36773 0.0411646 0 2.16315V33.9077L8.33179 43.1329L8.27912 8.40694L9.12105 8.42455L1.35061 2.65434L10.2964 1.95289L10.6998 2.14572L22.61 7.67024H22.6276L22.6452 40.5372V40.5548L23.382 41.0284L23.6451 41.2038L24.3467 41.0284V6.70567H24.3639ZM13.9447 20.6138H13.7519V20.7716C13.7519 20.7539 13.7695 20.7189 13.7869 20.7015C13.8045 20.6839 13.822 20.6664 13.857 20.6664C13.8746 20.6664 13.9097 20.6664 13.9271 20.6841C13.9447 20.7017 13.9622 20.7191 13.9622 20.7367L15.4706 35.8549L15.9092 40.257L15.4708 35.8547L13.9447 20.6138Z" fill="#103C6E"/>
<path d="M15.4703 35.9071L13.9443 20.789C13.9443 20.7713 13.9267 20.7363 13.9093 20.7363C13.8916 20.7187 13.8742 20.7187 13.8392 20.7187C13.8215 20.7187 13.7865 20.7363 13.7691 20.7537C13.7514 20.7713 13.734 20.7888 13.734 20.8238V20.666H13.9269L15.4703 35.9071Z" fill="#2A4194"/>
<path d="M23.6765 41.2041L23.4133 41.0287L22.6765 40.5551L22.6415 7.68816H22.6239L10.7139 2.16364V1.3042L23.6589 7.07441L23.6765 41.2041Z" fill="#103C6E"/>
<path d="M9.15704 41.993V42.9576L8.35015 43.133L8.29749 8.40698L9.13942 8.4246V15.4575L9.15704 41.993Z" fill="#103C6E"/>
<path d="M17.9968 29.681V29.9968C17.9968 30.0144 17.9792 30.0495 17.9617 30.0669C17.9441 30.0845 17.9267 30.1019 17.8916 30.1019C17.8566 30.1019 17.839 30.0843 17.8215 30.0669C17.8039 30.0493 17.7865 30.0319 17.7865 29.9968L17.7689 29.7337L15.9096 8.7578H15.8919L10.7174 5.25013L8.78801 3.93473H8.77039C8.77039 3.93473 8.77039 3.93473 8.77039 3.91711C8.77039 3.91711 8.77039 3.91711 8.77039 3.8995C8.77039 3.88188 8.77039 3.88188 8.78801 3.88188C8.80563 3.88188 8.80563 3.86426 8.80563 3.86426H8.82325L10.7352 4.82883L17.997 8.49429L18.0146 14.9483V16.4041L17.9968 29.681Z" fill="#103C6E"/>
<path d="M16.0311 41.6245L13.7683 40.2565V34.8021V20.7714C13.7683 20.7538 13.7859 20.7187 13.8034 20.7013C13.821 20.6837 13.8384 20.6663 13.8735 20.6663C13.8911 20.6663 13.9261 20.6663 13.9436 20.6839C13.9612 20.7015 13.9786 20.7189 13.9786 20.7365L15.487 35.8547L15.9256 40.2569L15.9432 40.4849L16.0311 41.6245Z" fill="#103C6E"/>
<path d="M33.6773 7.91284L37.035 17.3493H37.0736V7.91284H39.6209V21.6913H36.4561L33.0597 12.0425H33.0211V21.6913H30.4739V7.91284H33.6773Z" fill="#103C6E"/>
<path d="M46.4757 15.3231C46.4629 14.9243 46.4371 14.5769 46.3985 14.281C46.3599 13.9723 46.2892 13.715 46.1863 13.5091C46.0962 13.2904 45.9611 13.1296 45.781 13.0267C45.6138 12.9109 45.3951 12.853 45.1249 12.853C44.8547 12.853 44.6296 12.9173 44.4495 13.046C44.2822 13.1618 44.1472 13.3226 44.0442 13.5284C43.9413 13.7214 43.8641 13.9401 43.8127 14.1845C43.7741 14.429 43.7548 14.6734 43.7548 14.9178V15.3231H46.4757ZM43.7548 16.9055V17.7353C43.7548 18.044 43.7741 18.3464 43.8127 18.6422C43.8641 18.9253 43.9413 19.1826 44.0442 19.4141C44.1472 19.6329 44.2822 19.813 44.4495 19.9545C44.6167 20.0831 44.8226 20.1475 45.067 20.1475C45.5173 20.1475 45.8453 19.9866 46.0512 19.665C46.257 19.3434 46.3985 18.8545 46.4757 18.1984H48.8686C48.8172 19.4077 48.4955 20.3276 47.9037 20.9579C47.3119 21.5883 46.3792 21.9035 45.1056 21.9035C44.1407 21.9035 43.3881 21.7427 42.8478 21.4211C42.3075 21.0995 41.9086 20.6749 41.6513 20.1475C41.394 19.62 41.2332 19.0282 41.1689 18.3721C41.1174 17.716 41.0917 17.0599 41.0917 16.4037C41.0917 15.709 41.1367 15.04 41.2268 14.3968C41.3297 13.7536 41.5227 13.1811 41.8057 12.6793C42.1016 12.1776 42.5197 11.7788 43.0601 11.4829C43.6004 11.187 44.3208 11.039 45.2214 11.039C45.9933 11.039 46.6237 11.1677 47.1125 11.425C47.6143 11.6694 48.0067 12.0232 48.2897 12.4863C48.5727 12.9366 48.7657 13.4898 48.8686 14.1459C48.9715 14.7892 49.023 15.5096 49.023 16.3073V16.9055H43.7548Z" fill="#103C6E"/>
<path d="M50.4103 11.3092H52.9576V12.6986H52.9962C53.2663 12.1969 53.5944 11.7981 53.9803 11.5022C54.3663 11.1934 54.8359 11.039 55.3891 11.039C55.4662 11.039 55.5434 11.0455 55.6206 11.0583C55.7107 11.0583 55.7943 11.0648 55.8715 11.0776V13.6249C55.73 13.612 55.5885 13.6056 55.4469 13.6056C55.3183 13.5927 55.1832 13.5863 55.0417 13.5863C54.8101 13.5863 54.5786 13.6185 54.347 13.6828C54.1154 13.7471 53.9031 13.8565 53.7102 14.0108C53.5172 14.1524 53.3628 14.3453 53.247 14.5898C53.1312 14.8213 53.0734 15.1108 53.0734 15.4582V21.6913H50.4103V11.3092Z" fill="#103C6E"/>
<path d="M59.2873 16.8283C59.2873 17.1885 59.3002 17.5294 59.3259 17.851C59.3645 18.1727 59.4288 18.4621 59.5189 18.7194C59.6218 18.9639 59.7569 19.1633 59.9241 19.3177C60.1042 19.4592 60.3358 19.5299 60.6188 19.5299C60.9019 19.5299 61.1334 19.4592 61.3135 19.3177C61.5065 19.1633 61.6545 18.9574 61.7574 18.7001C61.8732 18.4428 61.9503 18.1341 61.9889 17.7739C62.0404 17.4008 62.0661 16.9955 62.0661 16.5581C62.0661 15.2973 61.9632 14.4032 61.7574 13.8758C61.5644 13.3483 61.2042 13.0846 60.6767 13.0846C60.3808 13.0846 60.1428 13.1489 59.9627 13.2775C59.7826 13.4062 59.6411 13.6185 59.5382 13.9144C59.4352 14.1974 59.3645 14.5833 59.3259 15.0722C59.3002 15.5482 59.2873 16.1336 59.2873 16.8283ZM64.6134 11.3092V21.1702C64.6134 22.5082 64.2789 23.5116 63.6099 24.1806C62.9538 24.8496 61.8474 25.1841 60.2908 25.1841C59.1586 25.1841 58.2838 24.9397 57.6663 24.4508C57.0617 23.9748 56.7593 23.2929 56.7593 22.4053H59.3066C59.3066 22.7397 59.4417 23.0035 59.7118 23.1965C59.8405 23.2865 59.9756 23.3573 60.1171 23.4087C60.2715 23.4602 60.4323 23.4859 60.5995 23.4859C61.1399 23.4859 61.5194 23.3122 61.7381 22.9649C61.9568 22.6175 62.0661 22.1866 62.0661 21.672V20.3018H62.0275C61.7574 20.6878 61.4229 20.9965 61.0241 21.2281C60.6381 21.4597 60.2329 21.5755 59.8083 21.5755C58.7534 21.5755 57.9558 21.1767 57.4154 20.379C56.888 19.5685 56.6242 18.2177 56.6242 16.3265C56.6242 15.7219 56.6564 15.1044 56.7207 14.474C56.7979 13.8436 56.9459 13.2775 57.1646 12.7758C57.3961 12.2612 57.7242 11.8431 58.1487 11.5215C58.5862 11.1998 59.1651 11.039 59.8855 11.039C60.2586 11.039 60.6446 11.142 61.0434 11.3478C61.4422 11.5536 61.7702 11.9267 62.0275 12.4671H62.0661V11.3092H64.6134Z" fill="#103C6E"/>
<path d="M66.6737 23.0421C66.9053 23.0807 67.1369 23.1 67.3684 23.1C67.8573 23.1 68.2046 22.9713 68.4105 22.714C68.6292 22.4567 68.7578 22.1158 68.7964 21.6913L65.8825 11.3092H68.6614L70.2052 18.4879H70.2437L71.5946 11.3092H74.2576L71.749 20.9965C71.5174 21.8585 71.2922 22.5532 71.0735 23.0807C70.8677 23.621 70.6168 24.0327 70.3209 24.3157C70.0379 24.6116 69.6906 24.8046 69.2789 24.8946C68.8801 24.9847 68.3719 25.0297 67.7544 25.0297H66.6737V23.0421Z" fill="#103C6E"/>
<path d="M32.1729 36.0026C32.1847 36.7333 32.279 37.2931 32.4557 37.682C32.6443 38.0592 33.0156 38.2477 33.5695 38.2477C33.8759 38.2477 34.1175 38.1947 34.2943 38.0886C34.4829 37.9826 34.6243 37.8411 34.7186 37.6644C34.8246 37.4758 34.8895 37.2578 34.913 37.0103C34.9484 36.7628 34.9661 36.5035 34.9661 36.2324C34.9661 35.9496 34.9425 35.6844 34.8953 35.4369C34.86 35.1776 34.7834 34.9478 34.6655 34.7474C34.5477 34.5471 34.3827 34.388 34.1705 34.2701C33.9584 34.1523 33.6755 34.0933 33.322 34.0933H32.4734V32.4316H33.3043C33.5754 32.4316 33.7993 32.3785 33.9761 32.2725C34.1646 32.1546 34.312 32.0073 34.418 31.8305C34.5359 31.6419 34.6184 31.4298 34.6655 31.1941C34.7245 30.9584 34.7539 30.7109 34.7539 30.4516C34.7539 29.8505 34.6537 29.4263 34.4534 29.1788C34.253 28.9313 33.9466 28.8075 33.5341 28.8075C33.263 28.8075 33.0391 28.8605 32.8623 28.9666C32.6973 29.0609 32.5677 29.2023 32.4734 29.3909C32.3791 29.5677 32.3143 29.7798 32.279 30.0273C32.2554 30.2748 32.2436 30.5459 32.2436 30.8405H29.9101C29.9101 29.5913 30.2224 28.6661 30.847 28.065C31.4716 27.4522 32.385 27.1458 33.5871 27.1458C34.7303 27.1458 35.6143 27.405 36.2389 27.9236C36.8753 28.4422 37.1935 29.2554 37.1935 30.3632C37.1935 31.1175 37.0226 31.7362 36.6809 32.2194C36.3509 32.6909 35.8853 32.9914 35.2843 33.121V33.1564C36.0975 33.286 36.6691 33.616 36.9991 34.1464C37.3408 34.6649 37.5117 35.319 37.5117 36.1087C37.5117 36.5329 37.4587 36.969 37.3526 37.4169C37.2466 37.8647 37.0403 38.2713 36.7339 38.6367C36.4275 39.002 36.0032 39.2967 35.4611 39.5206C34.9307 39.7445 34.2295 39.8565 33.3573 39.8565C32.1434 39.8565 31.2359 39.5265 30.6349 38.8665C30.0338 38.2065 29.7333 37.2695 29.7333 36.0556V36.0026H32.1729Z" fill="#103C6E"/>
<path d="M40.7905 35.7728C40.7905 36.1263 40.8082 36.4563 40.8435 36.7628C40.8789 37.0692 40.9437 37.3344 41.038 37.5583C41.1441 37.7704 41.2855 37.9413 41.4623 38.071C41.6509 38.1888 41.8925 38.2477 42.1871 38.2477C42.4935 38.2477 42.7351 38.1888 42.9119 38.071C43.1005 37.9413 43.2419 37.7645 43.3362 37.5406C43.4305 37.3167 43.4894 37.0574 43.513 36.7628C43.5483 36.4563 43.566 36.1263 43.566 35.7728C43.566 34.9242 43.4599 34.3173 43.2478 33.9519C43.0357 33.5866 42.6821 33.4039 42.1871 33.4039C41.6803 33.4039 41.3209 33.5866 41.1087 33.9519C40.8966 34.3173 40.7905 34.9242 40.7905 35.7728ZM43.3715 30.3278C43.3715 29.8329 43.2832 29.4557 43.1064 29.1964C42.9414 28.9372 42.6467 28.8075 42.2225 28.8075C41.8925 28.8075 41.6214 28.89 41.4093 29.055C41.2089 29.2082 41.0498 29.4263 40.9319 29.7091C40.8259 29.992 40.7552 30.3278 40.7198 30.7168C40.6844 31.1057 40.6668 31.53 40.6668 31.9896V32.6084H40.7021C40.9143 32.2784 41.2148 32.0191 41.6037 31.8305C42.0044 31.6302 42.4876 31.53 43.0533 31.53C43.6073 31.53 44.0787 31.6302 44.4676 31.8305C44.8565 32.0191 45.1688 32.2901 45.4046 32.6437C45.652 32.9855 45.8288 33.398 45.9349 33.8812C46.0528 34.3526 46.1117 34.8712 46.1117 35.4369C46.1117 36.8865 45.7876 37.9885 45.1394 38.7427C44.503 39.4852 43.4776 39.8565 42.0634 39.8565C41.1912 39.8565 40.4959 39.7033 39.9773 39.3968C39.4587 39.0904 39.058 38.672 38.7752 38.1417C38.5041 37.5995 38.3273 36.9749 38.2448 36.2678C38.1623 35.5606 38.1211 34.824 38.1211 34.058C38.1211 33.1741 38.1447 32.3196 38.1918 31.4946C38.2507 30.6578 38.4098 29.9212 38.6691 29.2848C38.9402 28.6366 39.3586 28.1181 39.9243 27.7291C40.49 27.3402 41.2914 27.1458 42.3285 27.1458C42.7764 27.1458 43.2065 27.1988 43.619 27.3049C44.0433 27.4109 44.4146 27.5877 44.7328 27.8352C45.051 28.0827 45.3044 28.4127 45.4929 28.8252C45.6933 29.2259 45.7994 29.7268 45.8112 30.3278H43.3715Z" fill="#103C6E"/>
<path d="M46.6857 33.8282C46.6857 32.956 46.7151 32.1193 46.7741 31.3178C46.833 30.5164 46.9921 29.8093 47.2514 29.1964C47.5107 28.5718 47.8996 28.0768 48.4182 27.7115C48.9485 27.3343 49.6792 27.1458 50.6103 27.1458C51.3763 27.1458 52.0069 27.2577 52.5018 27.4816C53.0086 27.6938 53.4093 28.0415 53.704 28.5247C54.0104 29.0079 54.2225 29.6384 54.3404 30.4162C54.47 31.1823 54.5349 32.1193 54.5349 33.2271C54.5349 34.0992 54.5054 34.936 54.4465 35.7374C54.3875 36.5388 54.2284 37.2519 53.9691 37.8765C53.7099 38.4893 53.315 38.9725 52.7847 39.3261C52.2661 39.6797 51.5413 39.8565 50.6103 39.8565C49.856 39.8565 49.2255 39.7563 48.7187 39.5559C48.2119 39.3556 47.8053 39.0138 47.4989 38.5306C47.2042 38.0474 46.9921 37.4228 46.8625 36.6567C46.7446 35.8788 46.6857 34.936 46.6857 33.8282ZM49.2314 34.3762C49.2314 35.1658 49.249 35.814 49.2844 36.3208C49.3315 36.8158 49.4081 37.2106 49.5142 37.5052C49.6203 37.7881 49.7617 37.9826 49.9385 38.0886C50.1153 38.1947 50.3392 38.2477 50.6103 38.2477C50.8931 38.2477 51.1229 38.1829 51.2997 38.0533C51.4765 37.9118 51.612 37.682 51.7063 37.3638C51.8124 37.0338 51.8831 36.5978 51.9185 36.0556C51.9656 35.5135 51.9892 34.8417 51.9892 34.0403V32.6791C51.9892 31.8894 51.9656 31.2471 51.9185 30.7521C51.8831 30.2453 51.8124 29.8505 51.7063 29.5677C51.6003 29.273 51.4588 29.0727 51.282 28.9666C51.1053 28.8605 50.8813 28.8075 50.6103 28.8075C50.3274 28.8075 50.0976 28.8782 49.9208 29.0197C49.744 29.1493 49.6026 29.3791 49.4965 29.7091C49.4022 30.0273 49.3315 30.4575 49.2844 30.9996C49.249 31.5418 49.2314 32.2135 49.2314 33.015V34.3762Z" fill="#103C6E"/>
</svg>
