<?xml version="1.0" standalone="no"?>
<!DOCTYPE svg PUBLIC "-//W3C//DTD SVG 20010904//EN"
 "http://www.w3.org/TR/2001/REC-SVG-20010904/DTD/svg10.dtd">
<svg version="1.0" xmlns="http://www.w3.org/2000/svg"
 width="610.000000pt" height="610.000000pt" viewBox="0 0 610.000000 610.000000"
 preserveAspectRatio="xMidYMid meet">
<metadata>
Created by potrace 1.14, written by Peter Selinger 2001-2017
</metadata>
<g transform="translate(0.000000,610.000000) scale(0.100000,-0.100000)"
fill="#000000" stroke="none">
<path d="M2169 6095 c-2 -1 -33 -5 -69 -9 -207 -18 -401 -76 -527 -156 l-23
-15 0 -2291 0 -2292 137 -178 c76 -99 142 -184 148 -191 5 -6 40 -51 77 -100
377 -493 662 -858 671 -858 7 -1 30 4 52 11 l40 11 0 2489 c0 2276 -1 2490
-16 2504 -9 8 -42 38 -74 65 -32 28 -63 55 -69 60 -16 15 -163 142 -227 197
-29 26 -66 57 -80 70 -15 13 -89 77 -165 143 -77 66 -144 124 -150 130 -17 16
-127 111 -154 134 -18 14 -21 21 -10 21 8 1 23 3 32 5 9 2 60 6 113 10 53 3
104 8 113 10 9 1 58 6 107 9 50 4 101 9 115 11 14 2 59 7 100 10 41 4 91 8
110 10 19 2 71 6 115 10 44 3 91 8 105 10 14 2 59 6 101 10 l76 6 159 -87
c316 -172 851 -462 919 -499 39 -21 111 -60 160 -88 50 -27 128 -70 175 -95
47 -25 90 -49 95 -54 7 -6 11 -807 12 -2356 1 -1291 2 -2358 3 -2372 0 -19 16
-36 62 -68 60 -43 61 -44 104 -32 l44 13 0 2477 0 2477 -802 400 c-558 278
-817 402 -848 406 -51 7 -114 15 -180 23 -52 5 -546 14 -551 9z"/>
<path d="M2640 5647 c8 -7 71 -58 140 -112 69 -54 168 -133 220 -174 52 -42
100 -79 105 -83 6 -5 40 -32 76 -61 36 -28 83 -65 105 -82 21 -16 52 -41 69
-55 16 -14 56 -45 87 -69 32 -23 59 -50 62 -59 3 -10 7 -57 11 -107 3 -49 8
-106 10 -125 2 -19 7 -82 11 -140 10 -155 11 -157 18 -260 4 -52 9 -111 11
-130 4 -41 16 -205 20 -270 2 -25 6 -76 9 -115 3 -38 8 -106 11 -150 3 -44 8
-96 10 -115 2 -19 7 -80 10 -135 4 -55 8 -116 10 -135 2 -19 7 -73 10 -120 3
-47 8 -105 10 -130 3 -25 7 -83 10 -130 3 -47 8 -110 10 -140 3 -30 7 -89 10
-130 3 -41 7 -97 10 -125 8 -93 15 -190 20 -262 2 -39 7 -91 9 -115 3 -24 8
-83 12 -133 6 -91 10 -109 22 -101 5 3 8 3054 3 3108 -1 4 -34 26 -73 49 -40
23 -97 56 -125 75 -29 19 -55 34 -58 34 -2 0 -35 19 -72 42 -38 22 -81 49 -98
58 -58 33 -650 383 -660 390 -5 4 -19 10 -30 14 -17 6 -18 5 -5 -7z"/>
<path d="M3243 1833 l0 -1418 71 -50 c39 -28 102 -72 139 -99 l69 -48 -7 83
c-3 46 -8 104 -10 129 -2 25 -7 81 -10 125 -4 44 -8 96 -10 115 -2 19 -6 69
-9 110 -4 41 -9 95 -11 120 -3 25 -7 77 -10 115 -10 135 -15 200 -20 240 -2
22 -7 76 -10 120 -4 44 -8 96 -10 115 -2 19 -6 73 -9 120 -4 47 -8 94 -10 105
-2 11 -7 65 -10 120 -4 55 -9 111 -11 125 -2 14 -7 61 -10 105 -7 96 -14 171
-20 244 -3 29 -7 85 -11 125 -3 39 -7 89 -9 111 -2 22 -6 74 -9 115 -4 41 -9
95 -11 120 -4 39 -9 96 -20 235 -1 17 -6 71 -10 120 -4 50 -8 96 -8 103 0 6
-6 12 -12 12 -9 0 -12 -337 -12 -1417z"/>
</g>
</svg>
