<svg width="57" height="56" viewBox="0 0 57 56" fill="none" xmlns="http://www.w3.org/2000/svg">
<g clip-path="url(#clip0_369_1297)">
<path d="M8.1317 9.33331C7.63665 9.33336 7.16188 9.53004 6.81183 9.8801C6.46177 10.2302 6.26509 10.7049 6.26504 11.2V42.9333C6.26164 43.2054 6.31776 43.4749 6.42947 43.723C6.54117 43.9711 6.70577 44.1918 6.91172 44.3697C7.11767 44.5475 7.36001 44.6781 7.62176 44.7525C7.88351 44.8268 8.15834 44.843 8.42702 44.8H18.1176C17.7032 43.6314 17.465 42.377 17.465 41.0666H9.99837V13.0666H47.3317V41.0666H39.865C39.865 42.377 39.6268 43.6314 39.2124 44.8H48.8848C49.1549 44.846 49.4317 44.832 49.6957 44.759C49.9597 44.6861 50.2045 44.5559 50.4125 44.3777C50.6206 44.1996 50.7869 43.9778 50.8997 43.7282C51.0125 43.4786 51.0689 43.2072 51.065 42.9333V11.2C51.065 10.7049 50.8683 10.2302 50.5183 9.8801C50.1682 9.53004 49.6934 9.33336 49.1984 9.33331H8.1317ZM19.3317 18.6666C19.0844 18.6631 18.8388 18.7088 18.6092 18.8011C18.3797 18.8933 18.1708 19.0303 17.9946 19.2039C17.8185 19.3776 17.6786 19.5846 17.5831 19.8128C17.4876 20.041 17.4385 20.2859 17.4385 20.5333C17.4385 20.7807 17.4876 21.0256 17.5831 21.2538C17.6786 21.482 17.8185 21.689 17.9946 21.8627C18.1708 22.0364 18.3797 22.1733 18.6092 22.2655C18.8388 22.3578 19.0844 22.4035 19.3317 22.4H37.9984C38.2457 22.4035 38.4913 22.3578 38.7209 22.2655C38.9504 22.1733 39.1593 22.0364 39.3355 21.8627C39.5116 21.689 39.6515 21.482 39.747 21.2538C39.8425 21.0256 39.8916 20.7807 39.8916 20.5333C39.8916 20.2859 39.8425 20.041 39.747 19.8128C39.6515 19.5846 39.5116 19.3776 39.3355 19.2039C39.1593 19.0303 38.9504 18.8933 38.7209 18.8011C38.4913 18.7088 38.2457 18.6631 37.9984 18.6666H19.3317ZM19.3317 26.1333C19.0844 26.1298 18.8388 26.1755 18.6092 26.2678C18.3797 26.36 18.1708 26.4969 17.9946 26.6706C17.8185 26.8443 17.6786 27.0513 17.5831 27.2795C17.4876 27.5077 17.4385 27.7526 17.4385 28C17.4385 28.2474 17.4876 28.4923 17.5831 28.7205C17.6786 28.9487 17.8185 29.1557 17.9946 29.3293C18.1708 29.503 18.3797 29.64 18.6092 29.7322C18.8388 29.8244 19.0844 29.8701 19.3317 29.8666H37.9984C38.2457 29.8701 38.4913 29.8244 38.7209 29.7322C38.9504 29.64 39.1593 29.503 39.3355 29.3293C39.5116 29.1557 39.6515 28.9487 39.747 28.7205C39.8425 28.4923 39.8916 28.2474 39.8916 28C39.8916 27.7526 39.8425 27.5077 39.747 27.2795C39.6515 27.0513 39.5116 26.8443 39.3355 26.6706C39.1593 26.4969 38.9504 26.36 38.7209 26.2678C38.4913 26.1755 38.2457 26.1298 37.9984 26.1333H19.3317ZM28.665 33.6C24.5634 33.6 21.1984 36.965 21.1984 41.0666C21.1984 42.9336 21.9185 44.6273 23.065 45.9411V56L28.665 52.2666L34.265 56V45.9411C35.4116 44.6273 36.1317 42.9336 36.1317 41.0666C36.1317 36.965 32.7667 33.6 28.665 33.6ZM28.665 37.3333C30.749 37.3333 32.3984 38.9827 32.3984 41.0666C32.3984 43.1506 30.749 44.8 28.665 44.8C26.5811 44.8 24.9317 43.1506 24.9317 41.0666C24.9317 38.9827 26.5811 37.3333 28.665 37.3333Z" fill="black"/>
</g>
<defs>
<clipPath id="clip0_369_1297">
<rect width="56" height="56" fill="white" transform="translate(0.665039)"/>
</clipPath>
</defs>
</svg>
